How to do VLOOKUP in R
…
```
## # A tibble: 3 x 4
##   date       season episode my_rating
##   <chr>       <dbl>   <dbl>     <dbl>
## 1 2021-06-25      1       1         6
## 2 2021-08-01      3       4         8
## 3 2021-10-15      2       4         9
```

```r
office_ratings
```

```
## # A tibble: 188 x 6
##    season episode title             imdb_rating total_votes air_date  
##     <dbl>   <dbl> <chr>                   <dbl>       <dbl> <date>    
##  1      1       1 Pilot                     7.6        3706 2005-03-24
##  2      1       2 Diversity Day             8.3        3566 2005-03-29
##  3      1       3 Health Care               7.9        2983 2005-04-05
##  4      1       4 The Alliance              8.1        2886 2005-04-12
##  5      1       5 Basketball                8.4        3179 2005-04-19
##  6      1       6 Hot Girl                  7.8        2852 2005-04-26
##  7      2       1 The Dundies               8.7        3213 2005-09-20
##  8      2       2 Sexual Harassment         8.2        2736 2005-09-27
##  9      2       3 Office Olympics           8.4        2742 2005-10-04
## 10      2       4 The Fire                  8.4        2713 2005-10-11
## # … with 178 more rows
```
…
- You can use different join functions to suit the specific needs of your use case

---

# Obstacle: What if the data is messier?

--

```r
schrute_data
```

```
## # A tibble: 55,130 x 12
##   index season episode episode_name director  writer     character text         
##   <int>  <int>   <int> <chr>        <chr>     <chr>      <chr>     <chr>        
## 1     1      1       1 Pilot        Ken Kwap… Ricky Ger… Michael   All right Ji…
## 2     2      1       1 Pilot        Ken Kwap… Ricky Ger… Jim       Oh, I told y…
## 3     3      1       1 Pilot        Ken Kwap… Ricky Ger… Michael   So you've co…
## 4     4      1       1 Pilot        Ken Kwap… Ricky Ger… Jim       Actually, yo…
## 5     5      1       1 Pilot        Ken Kwap… Ricky Ger… Michael   All right. W…
## # … with 55,125 more rows, and 4 more variables: text_w_direction <chr>,
## #   imdb_rating <dbl>, total_votes <int>, air_date <fct>
```
--

```r
left_join(my_ratings, schrute_data)
```

```
## Joining, by = c("season", "episode")
```

```
## # A tibble: 784 x 14
##   date   season episode my_rating index episode_name director writer   character
##   <chr>   <dbl>   <dbl>     <dbl> <int> <chr>        <chr>    <chr>    <chr>    
## 1 2021-…      1       1         6     1 Pilot        Ken Kwa… Ricky G… Michael  
## 2 2021-…      1       1         6     2 Pilot        Ken Kwa… Ricky G… Jim      
## 3 2021-…      1       1         6     3 Pilot        Ken Kwa… Ricky G… Michael  
## 4 2021-…      1       1         6     4 Pilot        Ken Kwa… Ricky G… Jim      
## 5 2021-…      1       1         6     5 Pilot        Ken Kwa… Ricky G… Michael  
## # … with 779 more rows, and 5 more variables: text <chr>,
## #   text_w_direction <chr>, imdb_rating <dbl>, total_votes <int>,
## #   air_date <fct>
```
…
